Runhost:carter-b038.rcac.purdue.edu   Rank:0 of 32 ranks   hello, world
Runhost:carter-b038.rcac.purdue.edu   Rank:1 of 32 ranks   hello, world
Runhost:carter-b038.rcac.purdue.edu   Rank:2 of 32 ranks   hello, world
Runhost:carter-b038.rcac.purdue.edu   Rank:3 of 32 ranks   hello, world
Runhost:carter-b038.rcac.purdue.edu   Rank:4 of 32 ranks   hello, world
Runhost:carter-b038.rcac.purdue.edu   Rank:5 of 32 ranks   hello, world
Runhost:carter-b038.rcac.purdue.edu   Rank:6 of 32 ranks   hello, world
Runhost:carter-b038.rcac.purdue.edu   Rank:7 of 32 ranks   hello, world
Runhost:carter-b038.rcac.purdue.edu   Rank:8 of 32 ranks   hello, world
Runhost:carter-b038.rcac.purdue.edu   Rank:9 of 32 ranks   hello, world
Runhost:carter-b038.rcac.purdue.edu   Rank:10 of 32 ranks   hello, world
Runhost:carter-b038.rcac.purdue.edu   Rank:11 of 32 ranks   hello, world
Runhost:carter-b038.rcac.purdue.edu   Rank:12 of 32 ranks   hello, world
Runhost:carter-b038.rcac.purdue.edu   Rank:13 of 32 ranks   hello, world
Runhost:carter-b038.rcac.purdue.edu   Rank:14 of 32 ranks   hello, world
Runhost:carter-b038.rcac.purdue.edu   Rank:15 of 32 ranks   hello, world
Runhost:carter-b075.rcac.purdue.edu   Rank:16 of 32 ranks   hello, world
Runhost:carter-b075.rcac.purdue.edu   Rank:17 of 32 ranks   hello, world
Runhost:carter-b075.rcac.purdue.edu   Rank:18 of 32 ranks   hello, world
Runhost:carter-b075.rcac.purdue.edu   Rank:19 of 32 ranks   hello, world
Runhost:carter-b075.rcac.purdue.edu   Rank:20 of 32 ranks   hello, world
Runhost:carter-b075.rcac.purdue.edu   Rank:21 of 32 ranks   hello, world
Runhost:carter-b075.rcac.purdue.edu   Rank:22 of 32 ranks   hello, world
Runhost:carter-b075.rcac.purdue.edu   Rank:23 of 32 ranks   hello, world
Runhost:carter-b075.rcac.purdue.edu   Rank:24 of 32 ranks   hello, world
Runhost:carter-b075.rcac.purdue.edu   Rank:25 of 32 ranks   hello, world
Runhost:carter-b075.rcac.purdue.edu   Rank:26 of 32 ranks   hello, world
Runhost:carter-b075.rcac.purdue.edu   Rank:27 of 32 ranks   hello, world
Runhost:carter-b075.rcac.purdue.edu   Rank:28 of 32 ranks   hello, world
Runhost:carter-b075.rcac.purdue.edu   Rank:29 of 32 ranks   hello, world
Runhost:carter-b075.rcac.purdue.edu   Rank:30 of 32 ranks   hello, world
Runhost:carter-b075.rcac.purdue.edu   Rank:31 of 32 ranks   hello, world
